{"chapters":[{"number":58,"title":"Chapter 58","date":1771785009,"link":"/chapter/undefined"},{"number":58,"title":"Chapter 58","date":1771719061,"link":"/chapter/undefined"},{"number":57,"title":"Chapter 57","date":1771779126,"link":"/chapter/undefined"},{"number":57,"title":"Chapter 57","date":1771245311,"link":"/chapter/undefined"},{"number":57,"title":"Chapter 57","date":1770572076,"link":"/chapter/undefined"},{"number":56,"title":"Chapter 56","date":1771175084,"link":"/chapter/undefined"},{"number":56,"title":"Chapter 56","date":1770574617,"link":"/chapter/undefined"},{"number":56,"title":"Chapter 56","date":1770566720,"link":"/chapter/undefined"},{"number":56,"title":"Chapter 56","date":1770563564,"link":"/chapter/undefined"},{"number":55,"title":"Chapter 55","date":1770563552,"link":"/chapter/undefined"},{"number":55,"title":"Chapter 55","date":1764187735,"link":"/chapter/undefined"},{"number":55,"title":"Chapter 55","date":1764165047,"link":"/chapter/undefined"},{"number":54,"title":"Chapter 54","date":1770563534,"link":"/chapter/undefined"},{"number":54,"title":"Chapter 54","date":1768227540,"link":"/chapter/undefined"},{"number":54,"title":"Chapter 54","date":1764187725,"link":"/chapter/undefined"},{"number":54,"title":"Chapter 54","date":1764165011,"link":"/chapter/undefined"},{"number":53,"title":"Chapter 53","date":1770563518,"link":"/chapter/undefined"},{"number":53,"title":"Chapter 53","date":1768151115,"link":"/chapter/undefined"},{"number":53,"title":"Chapter 53","date":1764187708,"link":"/chapter/undefined"},{"number":53,"title":"Chapter 53","date":1764164975,"link":"/chapter/undefined"},{"number":52,"title":"Chapter 52","date":1766594148,"link":"/chapter/undefined"},{"number":52,"title":"Chapter 52","date":1765429603,"link":"/chapter/undefined"},{"number":52,"title":"Chapter 52","date":1764187700,"link":"/chapter/undefined"},{"number":52,"title":"Chapter 52","date":1764164939,"link":"/chapter/undefined"},{"number":51,"title":"Chapter 51","date":1766594128,"link":"/chapter/undefined"},{"number":51,"title":"Chapter 51","date":1765429596,"link":"/chapter/undefined"},{"number":51,"title":"Chapter 51","date":1764187693,"link":"/chapter/undefined"},{"number":51,"title":"Chapter 51","date":1764164892,"link":"/chapter/undefined"},{"number":51,"title":"Chapter 51","date":1759777149,"link":"/chapter/undefined"},{"number":50,"title":"Chapter 50","date":1765481908,"link":"/chapter/undefined"},{"number":50,"title":"Chapter 50","date":1765429589,"link":"/chapter/undefined"},{"number":50,"title":"Chapter 50","date":1764187688,"link":"/chapter/undefined"},{"number":50,"title":"Chapter 50","date":1764164857,"link":"/chapter/undefined"},{"number":50,"title":"Chapter 50","date":1759777144,"link":"/chapter/undefined"},{"number":49,"title":"Chapter 49","date":1768997094,"link":"/chapter/undefined"},{"number":49,"title":"Chapter 49","date":1765481873,"link":"/chapter/undefined"},{"number":49,"title":"Chapter 49","date":1765429579,"link":"/chapter/undefined"},{"number":49,"title":"Chapter 49","date":1764187683,"link":"/chapter/undefined"},{"number":49,"title":"Chapter 49","date":1764164812,"link":"/chapter/undefined"},{"number":48,"title":"Chapter 48","date":1768997086,"link":"/chapter/undefined"},{"number":48,"title":"Chapter 48","date":1765429569,"link":"/chapter/undefined"},{"number":48,"title":"Chapter 48","date":1764201832,"link":"/chapter/undefined"},{"number":48,"title":"Chapter 48","date":1764187675,"link":"/chapter/undefined"},{"number":48,"title":"Chapter 48","date":1764164777,"link":"/chapter/undefined"},{"number":47,"title":"Chapter 47","date":1768997077,"link":"/chapter/undefined"},{"number":47,"title":"Chapter 47","date":1765429562,"link":"/chapter/undefined"},{"number":47,"title":"Chapter 47","date":1764412340,"link":"/chapter/undefined"},{"number":47,"title":"Chapter 47","date":1764187668,"link":"/chapter/undefined"},{"number":47,"title":"Chapter 47","date":1764042561,"link":"/chapter/undefined"},{"number":46,"title":"Chapter 46","date":1768997053,"link":"/chapter/undefined"}],"pagination":{"count":50,"total":279,"per_page":50,"current_page":1,"last_page":6,"from":1,"to":50}}