{"status":200,"result":{"items":[{"chapter_id":8295088,"manga_id":1429,"scanlation_group_id":9302,"is_official":0,"number":58,"name":"","language":"en","volume":0,"votes":8,"created_at":1771785009,"updated_at":1771785009,"scanlation_group":{"scanlation_group_id":9302,"name":"Lua Comic","slug":"luacomic"}}],"pagination":{"count":1,"total":279,"per_page":1,"current_page":1,"last_page":279,"from":1,"to":1}}}