{"chapters":[{"id":8295088,"number":58,"title":"Chapter 58","date":1771785009,"views":8,"link":"/read/8295088"},{"id":8282108,"number":58,"title":"Chapter 58","date":1771719061,"views":56,"link":"/read/8282108"},{"id":8294263,"number":57,"title":"Chapter 57","date":1771779126,"views":0,"link":"/read/8294263"},{"id":8214812,"number":57,"title":"Chapter 57","date":1771245311,"views":48,"link":"/read/8214812"},{"id":8175249,"number":57,"title":"Chapter 57","date":1770572076,"views":75,"link":"/read/8175249"},{"id":8212183,"number":56,"title":"Chapter 56","date":1771175084,"views":1,"link":"/read/8212183"},{"id":8175358,"number":56,"title":"Chapter 56","date":1770574617,"views":48,"link":"/read/8175358"},{"id":8175071,"number":56,"title":"Chapter 56","date":1770566720,"views":6,"link":"/read/8175071"},{"id":8174817,"number":56,"title":"Chapter 56","date":1770563564,"views":12,"link":"/read/8174817"},{"id":8174812,"number":55,"title":"Chapter 55","date":1770563552,"views":3,"link":"/read/8174812"},{"id":5919241,"number":55,"title":"Chapter 55","date":1764187735,"views":45,"link":"/read/5919241"},{"id":5872884,"number":55,"title":"Chapter 55","date":1764165047,"views":2,"link":"/read/5872884"},{"id":8174807,"number":54,"title":"Chapter 54","date":1770563534,"views":2,"link":"/read/8174807"},{"id":7288598,"number":54,"title":"Chapter 54","date":1768227540,"views":48,"link":"/read/7288598"},{"id":5919193,"number":54,"title":"Chapter 54","date":1764187725,"views":4,"link":"/read/5919193"},{"id":5872810,"number":54,"title":"Chapter 54","date":1764165011,"views":0,"link":"/read/5872810"},{"id":8174799,"number":53,"title":"Chapter 53","date":1770563518,"views":1,"link":"/read/8174799"},{"id":7287002,"number":53,"title":"Chapter 53","date":1768151115,"views":40,"link":"/read/7287002"},{"id":5919113,"number":53,"title":"Chapter 53","date":1764187708,"views":6,"link":"/read/5919113"},{"id":5872734,"number":53,"title":"Chapter 53","date":1764164975,"views":0,"link":"/read/5872734"},{"id":7226105,"number":52,"title":"Chapter 52","date":1766594148,"views":38,"link":"/read/7226105"},{"id":6739392,"number":52,"title":"Chapter 52","date":1765429603,"views":0,"link":"/read/6739392"},{"id":5919072,"number":52,"title":"Chapter 52","date":1764187700,"views":4,"link":"/read/5919072"},{"id":5872661,"number":52,"title":"Chapter 52","date":1764164939,"views":0,"link":"/read/5872661"},{"id":7226102,"number":51,"title":"Chapter 51","date":1766594128,"views":32,"link":"/read/7226102"},{"id":6739356,"number":51,"title":"Chapter 51","date":1765429596,"views":0,"link":"/read/6739356"},{"id":5919033,"number":51,"title":"Chapter 51","date":1764187693,"views":3,"link":"/read/5919033"},{"id":5872567,"number":51,"title":"Chapter 51","date":1764164892,"views":0,"link":"/read/5872567"},{"id":3801239,"number":51,"title":"Chapter 51","date":1759777149,"views":0,"link":"/read/3801239"},{"id":6916205,"number":50,"title":"Chapter 50","date":1765481908,"views":40,"link":"/read/6916205"},{"id":6739321,"number":50,"title":"Chapter 50","date":1765429589,"views":0,"link":"/read/6739321"},{"id":5919008,"number":50,"title":"Chapter 50","date":1764187688,"views":1,"link":"/read/5919008"},{"id":5872495,"number":50,"title":"Chapter 50","date":1764164857,"views":0,"link":"/read/5872495"},{"id":3801189,"number":50,"title":"Chapter 50","date":1759777144,"views":0,"link":"/read/3801189"},{"id":7447937,"number":49,"title":"Chapter 49","date":1768997094,"views":1,"link":"/read/7447937"},{"id":6916159,"number":49,"title":"Chapter 49","date":1765481873,"views":26,"link":"/read/6916159"},{"id":6739273,"number":49,"title":"Chapter 49","date":1765429579,"views":0,"link":"/read/6739273"},{"id":5918977,"number":49,"title":"Chapter 49","date":1764187683,"views":1,"link":"/read/5918977"},{"id":5872409,"number":49,"title":"Chapter 49","date":1764164812,"views":0,"link":"/read/5872409"},{"id":7447894,"number":48,"title":"Chapter 48","date":1768997086,"views":1,"link":"/read/7447894"},{"id":6739221,"number":48,"title":"Chapter 48","date":1765429569,"views":0,"link":"/read/6739221"},{"id":5949483,"number":48,"title":"Chapter 48","date":1764201832,"views":28,"link":"/read/5949483"},{"id":5918932,"number":48,"title":"Chapter 48","date":1764187675,"views":0,"link":"/read/5918932"},{"id":5872330,"number":48,"title":"Chapter 48","date":1764164777,"views":0,"link":"/read/5872330"},{"id":7447860,"number":47,"title":"Chapter 47","date":1768997077,"views":2,"link":"/read/7447860"},{"id":6739180,"number":47,"title":"Chapter 47","date":1765429562,"views":0,"link":"/read/6739180"},{"id":6178495,"number":47,"title":"Chapter 47","date":1764412340,"views":0,"link":"/read/6178495"},{"id":5918889,"number":47,"title":"Chapter 47","date":1764187668,"views":0,"link":"/read/5918889"},{"id":5489929,"number":47,"title":"Chapter 47","date":1764042561,"views":29,"link":"/read/5489929"},{"id":7447750,"number":46,"title":"Chapter 46","date":1768997053,"views":2,"link":"/read/7447750"}],"pagination":{"count":50,"total":279,"per_page":50,"current_page":1,"last_page":6,"from":1,"to":50}}